Housing in London
…
## 
##    0    1 
## 3613 9936

# Find and remove duplicates (if any)
sum(duplicated(ldh_m))

## [1] 0

There are no duplicates found.

arrange(unique(ldh_m[c("code", "area")]))

## # A tibble: 49 x 2
##    code      area                
##    <chr>     <chr>               
##  1 E09000001 city of london      
##  2 E09000002 barking and dagenham
##  3 E09000003 barnet              
##  4 E09000004 bexley              
##  5 E09000005 brent               
##  6 E09000006 bromley             
##  7 E09000007 camden              
##  8 E09000008 croydon             
##  9 E09000009 ealing              
## 10 E09000010 enfield             
## # ... with 39 more rows
…
#merge
ld_houses <- left_join(m_new, london_grid, by = c("code" = "code"))
ld_houses <- ld_houses %>% 
mutate(date = ymd(date),
  year=as.numeric(substr(date, 1, 4))) 
ld_houses

## # A tibble: 13,500 x 10
##    date       area     average_price code   houses_sold no_of_crimes  year   row
##    <date>     <chr>            <dbl> <chr>        <dbl>        <dbl> <dbl> <dbl>
##  1 1995-01-01 city of~         91449 E0900~          17           NA  1995     4
##  2 1995-02-01 city of~         82203 E0900~           7           NA  1995     4
##  3 1995-03-01 city of~         79121 E0900~          14           NA  1995     4
##  4 1995-04-01 city of~         77101 E0900~           7           NA  1995     4
##  5 1995-05-01 city of~         84409 E0900~          10           NA  1995     4
##  6 1995-06-01 city of~         94901 E0900~          17           NA  1995     4
##  7 1995-07-01 city of~        110128 E0900~          13           NA  1995     4
##  8 1995-08-01 city of~        112329 E0900~          14           NA  1995     4
##  9 1995-09-01 city of~        104473 E0900~          17           NA  1995     4
## 10 1995-10-01 city of~        108038 E0900~          14           NA  1995     4
## # ... with 13,490 more rows, and 2 more variables: col <dbl>, name <chr>
…
